{
    "domain" :  "REPLACED_AT_DEPLOY_TIME",
    "muleVersion": {"version": "3.8.4"},
    "monitoringEnabled": true,
    "monitoringAutoRestart": true,
    "loggingNgEnabled": true,
    "persistentQueues": false,
    "workers": {
        "amount": 1,
        "type": {
            "name": "REPLACED_AT_DEPLOY_TIME"
        }
    },
    "properties": {
        "secure.properties": "anypoint.platform.client_secret", 
        "anypoint.platform.coreservice_base_uri": "https://anypoint.mulesoft.com/accounts",
        "anypoint.platform.analytics_base_uri": "https://analytics-ingest.anypoint.mulesoft.com",
        "anypoint.platform.platform_base_uri": "https://anypoint.mulesoft.com/apiplatform",
        "cloudhub.username": "ch_connector@Development",
        "cloudhub.password": "dummyvalue",
        "cloudhub.authentication" : "Cloudhub_Token_Auth",
        "domain.project" : "REPLACED AT DEPLOY TIME",
        "centresdbsystemapi.host":"ucas-dev-centresdbsystemapi.ir-e1.cloudhub.io",
        "centresdbsystemapi.version":"v1",
        "centresdbsystemapi.response.timeout.millis":"30000",
        "centresdbsystemapi.port":"443",
	    "addresses.autodiscovery.apiName" : "REPLACED AT DEPLOY TIME",
        "autodiscovery.apiVersion" : "REPLACED AT DEPLOY TIME",
        "https.host": "0.0.0.0",
        "https.port": "8082"
    }
}